%YAML 1.1
%TAG !u! tag:unity3d.com,2011:
--- !u!78 &1
TagManager:
  serializedVersion: 2
  tags: []
  layers:
  - Default
  - TransparentFX
  - Ignore Raycast
  - 
  - Water
  - UI
  - 
  - 
  - Interactive
  - Player
  - PlayerLocal
  - Environment
  - UiMenu
  - Pickup
  - PickupNoEnvironment
  - StereoLeft
  - StereoRight
  - Walkthrough
  - MirrorReflection
  - reserved2
  - reserved3
  - reserved4
  - Glass
  - 
  - 
  - 
  - 
  - 
  - 
  - 
  - 
  - 
  m_SortingLayers:
  - name: Default
    uniqueID: 0
    locked: 0
